%YAML 1.1
%TAG !u! tag:unity3d.com,2011:
--- !u!1 &1317083741807122
GameObject:
  m_ObjectHideFlags: 0
  m_CorrespondingSourceObject: {fileID: 0}
  m_PrefabInstance: {fileID: 0}
  m_PrefabAsset: {fileID: 0}
  serializedVersion: 6
  m_Component:
  - component: {fileID: 4987177571926396}
  - component: {fileID: 205559238332675686}
  - component: {fileID: 208044106627558328}
  - component: {fileID: 136126961747989630}
  - component: {fileID: 114471481107098178}
  - component: {fileID: 114178920209631086}
  - component: {fileID: 1964251293179279170}
  - component: {fileID: 2946452692753136818}
  m_Layer: 14
  m_Name: Tree7
  m_TagString: Ambient
  m_Icon: {fileID: 0}
  m_NavMeshLayer: 0
  m_StaticEditorFlags: 0
  m_IsActive: 1
--- !u!4 &4987177571926396
Transform:
  m_ObjectHideFlags: 0
  m_CorrespondingSourceObject: {fileID: 0}
  m_PrefabInstance: {fileID: 0}
  m_PrefabAsset: {fileID: 0}
  m_GameObject: {fileID: 1317083741807122}
  m_LocalRotation: {x: -0, y: -0, z: -0, w: 1}
  m_LocalPosition: {x: -11.24, y: -0.0018310547, z: 72.83}
  m_LocalScale: {x: 1, y: 1, z: 1}
  m_Children:
  - {fileID: 4253792214907646}
  - {fileID: 4517487412649596}
  m_Father: {fileID: 0}
  m_RootOrder: 0
  m_LocalEulerAnglesHint: {x: 0, y: 0, z: 0}
--- !u!205 &205559238332675686
LODGroup:
  m_ObjectHideFlags: 0
  m_CorrespondingSourceObject: {fileID: 0}
  m_PrefabInstance: {fileID: 0}
  m_PrefabAsset: {fileID: 0}
  m_GameObject: {fileID: 1317083741807122}
  serializedVersion: 2
  m_LocalReferencePoint: {x: 0.029491663, y: 3.4068997, z: 0.02241373}
  m_Size: 6.8137994
  m_FadeMode: 0
  m_AnimateCrossFading: 0
  m_LastLODIsBillboard: 0
  m_LODs:
  - screenRelativeHeight: 0.121335745
    fadeTransitionWidth: 0
    renderers:
    - renderer: {fileID: 23094936186051666}
  m_Enabled: 1
--- !u!208 &208044106627558328
NavMeshObstacle:
  m_ObjectHideFlags: 0
  m_CorrespondingSourceObject: {fileID: 0}
  m_PrefabInstance: {fileID: 0}
  m_PrefabAsset: {fileID: 0}
  m_GameObject: {fileID: 1317083741807122}
  m_Enabled: 1
  serializedVersion: 3
  m_Shape: 0
  m_Extents: {x: 0.55, y: 3.407, z: 0.55}
  m_MoveThreshold: 0.1
  m_Carve: 1
  m_CarveOnlyStationary: 0
  m_Center: {x: 0.029000001, y: 3.407, z: 0.022000002}
  m_TimeToStationary: 0.5
--- !u!136 &136126961747989630
CapsuleCollider:
  m_ObjectHideFlags: 0
  m_CorrespondingSourceObject: {fileID: 0}
  m_PrefabInstance: {fileID: 0}
  m_PrefabAsset: {fileID: 0}
  m_GameObject: {fileID: 1317083741807122}
  m_Material: {fileID: 0}
  m_IsTrigger: 0
  m_Enabled: 1
  m_Radius: 0.67
  m_Height: 5.85
  m_Direction: 1
  m_Center: {x: 0.029491723, y: 2.82, z: 0.02241379}
--- !u!114 &114471481107098178
MonoBehaviour:
  m_ObjectHideFlags: 0
  m_CorrespondingSourceObject: {fileID: 0}
  m_PrefabInstance: {fileID: 0}
  m_PrefabAsset: {fileID: 0}
  m_GameObject: {fileID: 1317083741807122}
  m_Enabled: 1
  m_EditorHideFlags: 0
  m_Script: {fileID: 11500000, guid: 36d965436cdb2714590c65b6eb22ac44, type: 3}
  m_Name: 
  m_EditorClassIdentifier: 
  team: -1
  tear: 0
  ownerId: 1
  maxHealth: 100
  health: 100
  live: 1
  pointToInteract: {fileID: 0}
  tearDisplay: []
  debug: 0
  isWalkAround: 0
  timeToWalk: 0
  timerToWalk: 0
  visionDistanve: 10
  _skillInfo:
    uniqueName: 
    readableName: 
    readableDescription: 
    imagePath: 
    timeToBuild: 0
    costFood: 0
    costGold: 0
    costWood: 0
    productionHotkey: 0
    skillType: 1
  _skillConditions: 0
  unitPosition: {x: 0, y: 0, z: 0}
  interactType: 0
  attackTimer: 0
  attackDelayTimer: 0
  attacked: 0
  defaultStatistic:
    damage: 10
    rangeAttack: 2
    attackTime: 2
    attackDelay: 0.5
    damageAfterTimer: 1
    attackType: 4
    stabbingResist: 0
    cuttingResist: 0
    bitingResist: 0
    magicResist: 0
    agrRange: 20
    alertRange: 10
  actionEffect: {fileID: 0}
  behaviorType: 1
  bloodEffect: {fileID: 0}
  bloodOnBroundEffects: []
  destroyEffectPrefab: {fileID: 0}
  destroyEffectHandler: {fileID: 0}
  timeToDestroy: 30
  destroyAfter: 7
  toUndergroundSpeed: 1
  sendToDestroy: 0
  delayToMoveUnderground: 3
  weapon:
    prefab: {fileID: 0}
    holder: {fileID: 0}
  agent: {fileID: 0}
  obstacle: {fileID: 0}
  anim: {fileID: 0}
  target: {fileID: 0}
  tempDestinationPoint: {x: 0, y: 0, z: 0}
  previousPosition: {x: 0, y: 0, z: 0}
  curSpeed: 0
  cameraController: {fileID: 0}
  skillList: []
  producedUnits: []
  spawnPoint: {fileID: 0}
  spawnTarget: {x: 0, y: 0, z: 0}
  spawnTargetObject: {fileID: 0}
  buildTimer: 0
  productionQuery: []
  HTMLHealthFile: {fileID: 0}
  InfoHTMLOffset: {x: 0, y: 4, z: 0}
  pointMarkerPrefab: {fileID: 0}
  HTMLHealthSize: {x: 0, y: 50}
  visionToolPrefab: {fileID: 0}
  visionCount: 0
  uqeryLimit: 5
  beenSeen: 0
  holderObject: {fileID: 0}
  timerToCreateHolder: 0
  holderToolInfo:
    prefab: {fileID: 0}
    holder: {fileID: 0}
  tempSpeed: 0
  attackedTeam: 0
  pointMarker: {fileID: 0}
  canBeSelected: 1
  visionTool: {fileID: 0}
  unitSelectionComponent: {fileID: 0}
  resourceCapacityType: 3
  resourceCapacity: 150
  resourceEndless: 0
  sourceType: 0
  storedResources: 
  isInCameraView: 0
  state: 3
  magnitDistance: 2
  tempMaterialsMode: 
  terrainChangeInfo:
    offset: {x: 0, y: 0}
    size: {x: 0, y: 0}
    layer: 0
    value: 0
    changeTexture: 0
    removeGrass: 0
--- !u!114 &114178920209631086
MonoBehaviour:
  m_ObjectHideFlags: 0
  m_CorrespondingSourceObject: {fileID: 0}
  m_PrefabInstance: {fileID: 0}
  m_PrefabAsset: {fileID: 0}
  m_GameObject: {fileID: 1317083741807122}
  m_Enabled: 1
  m_EditorHideFlags: 0
  m_Script: {fileID: 11500000, guid: 0e11b0a92f7104e4f8c2693c0cf315ba, type: 3}
  m_Name: 
  m_EditorClassIdentifier: 
  canBeSelected: 1
  isSelected: 0
  projector: {fileID: 1354390515699072}
--- !u!114 &1964251293179279170
MonoBehaviour:
  m_ObjectHideFlags: 0
  m_CorrespondingSourceObject: {fileID: 0}
  m_PrefabInstance: {fileID: 0}
  m_PrefabAsset: {fileID: 0}
  m_GameObject: {fileID: 1317083741807122}
  m_Enabled: 1
  m_EditorHideFlags: 0
  m_Script: {fileID: 11500000, guid: aa584fbee541324448dd18d8409c7a41, type: 3}
  m_Name: 
  m_EditorClassIdentifier: 
  ObservedComponentsFoldoutOpen: 1
  Group: 0
  prefixField: -1
  Synchronization: 3
  OwnershipTransfer: 0
  ObservedComponents:
  - {fileID: 2946452692753136818}
  viewIdField: 0
  InstantiationId: 0
  isRuntimeInstantiated: 0
--- !u!114 &2946452692753136818
MonoBehaviour:
  m_ObjectHideFlags: 0
  m_CorrespondingSourceObject: {fileID: 0}
  m_PrefabInstance: {fileID: 0}
  m_PrefabAsset: {fileID: 0}
  m_GameObject: {fileID: 1317083741807122}
  m_Enabled: 1
  m_EditorHideFlags: 0
  m_Script: {fileID: 11500000, guid: 627855c7f81362d41938ffe0b1475957, type: 3}
  m_Name: 
  m_EditorClassIdentifier: 
  m_SynchronizePosition: 1
  m_SynchronizeRotation: 1
  m_SynchronizeScale: 0
--- !u!1 &1354390515699072
GameObject:
  m_ObjectHideFlags: 0
  m_CorrespondingSourceObject: {fileID: 0}
  m_PrefabInstance: {fileID: 0}
  m_PrefabAsset: {fileID: 0}
  serializedVersion: 6
  m_Component:
  - component: {fileID: 4517487412649596}
  - component: {fileID: 119562321000493606}
  m_Layer: 14
  m_Name: Projector
  m_TagString: Untagged
  m_Icon: {fileID: 0}
  m_NavMeshLayer: 0
  m_StaticEditorFlags: 0
  m_IsActive: 0
--- !u!4 &4517487412649596
Transform:
  m_ObjectHideFlags: 0
  m_CorrespondingSourceObject: {fileID: 0}
  m_PrefabInstance: {fileID: 0}
  m_PrefabAsset: {fileID: 0}
  m_GameObject: {fileID: 1354390515699072}
  m_LocalRotation: {x: -0.06162845, y: 0.7044161, z: -0.7044161, w: -0.06162845}
  m_LocalPosition: {x: 0, y: 2.52, z: 0}
  m_LocalScale: {x: 1, y: 1, z: 1}
  m_Children: []
  m_Father: {fileID: 4987177571926396}
  m_RootOrder: 1
  m_LocalEulerAnglesHint: {x: 90, y: 0, z: 0}
--- !u!119 &119562321000493606
Projector:
  m_ObjectHideFlags: 0
  m_CorrespondingSourceObject: {fileID: 0}
  m_PrefabInstance: {fileID: 0}
  m_PrefabAsset: {fileID: 0}
  m_GameObject: {fileID: 1354390515699072}
  m_Enabled: 1
  serializedVersion: 2
  m_NearClipPlane: 0.1
  m_FarClipPlane: 11.29
  m_FieldOfView: 60
  m_AspectRatio: 1
  m_Orthographic: 1
  m_OrthographicSize: 0.73
  m_Material: {fileID: 2100000, guid: 9e921ee33f8e5ee4884f95bba0a27ce7, type: 2}
  m_IgnoreLayers:
    serializedVersion: 2
    m_Bits: 32311
--- !u!1 &1765374688411792
GameObject:
  m_ObjectHideFlags: 0
  m_CorrespondingSourceObject: {fileID: 0}
  m_PrefabInstance: {fileID: 0}
  m_PrefabAsset: {fileID: 0}
  serializedVersion: 6
  m_Component:
  - component: {fileID: 4253792214907646}
  - component: {fileID: 33502045472675076}
  - component: {fileID: 23094936186051666}
  - component: {fileID: 95876283873481152}
  - component: {fileID: 2022694205742350981}
  m_Layer: 14
  m_Name: baum hd pine fbx
  m_TagString: Untagged
  m_Icon: {fileID: 0}
  m_NavMeshLayer: 0
  m_StaticEditorFlags: 0
  m_IsActive: 1
--- !u!4 &4253792214907646
Transform:
  m_ObjectHideFlags: 0
  m_CorrespondingSourceObject: {fileID: 0}
  m_PrefabInstance: {fileID: 0}
  m_PrefabAsset: {fileID: 0}
  m_GameObject: {fileID: 1765374688411792}
  m_LocalRotation: {x: -0, y: -0, z: -0, w: 1}
  m_LocalPosition: {x: -0.0041289, y: -0.02, z: -0.0031357}
  m_LocalScale: {x: 1.14, y: 1.14, z: 1.14}
  m_Children: []
  m_Father: {fileID: 4987177571926396}
  m_RootOrder: 0
  m_LocalEulerAnglesHint: {x: 0, y: 0, z: 0}
--- !u!33 &33502045472675076
MeshFilter:
  m_ObjectHideFlags: 0
  m_CorrespondingSourceObject: {fileID: 0}
  m_PrefabInstance: {fileID: 0}
  m_PrefabAsset: {fileID: 0}
  m_GameObject: {fileID: 1765374688411792}
  m_Mesh: {fileID: 4300000, guid: 7163db7426b13a345b09fa28a500a5e6, type: 3}
--- !u!23 &23094936186051666
MeshRenderer:
  m_ObjectHideFlags: 0
  m_CorrespondingSourceObject: {fileID: 0}
  m_PrefabInstance: {fileID: 0}
  m_PrefabAsset: {fileID: 0}
  m_GameObject: {fileID: 1765374688411792}
  m_Enabled: 1
  m_CastShadows: 1
  m_ReceiveShadows: 1
  m_DynamicOccludee: 1
  m_MotionVectors: 1
  m_LightProbeUsage: 1
  m_ReflectionProbeUsage: 1
  m_RenderingLayerMask: 4294967295
  m_RendererPriority: 0
  m_Materials:
  - {fileID: 2100000, guid: 63489f5a7b5c30d4c990f5949b6fb6f1, type: 2}
  - {fileID: 2100000, guid: f46c6bff831cfd14bb53bc3819f0f0db, type: 2}
  m_StaticBatchInfo:
    firstSubMesh: 0
    subMeshCount: 0
  m_StaticBatchRoot: {fileID: 0}
  m_ProbeAnchor: {fileID: 0}
  m_LightProbeVolumeOverride: {fileID: 0}
  m_ScaleInLightmap: 1
  m_ReceiveGI: 1
  m_PreserveUVs: 0
  m_IgnoreNormalsForChartDetection: 0
  m_ImportantGI: 0
  m_StitchLightmapSeams: 0
  m_SelectedEditorRenderState: 3
  m_MinimumChartSize: 4
  m_AutoUVMaxDistance: 0.5
  m_AutoUVMaxAngle: 89
  m_LightmapParameters: {fileID: 0}
  m_SortingLayerID: 0
  m_SortingLayer: 0
  m_SortingOrder: 0
--- !u!95 &95876283873481152
Animator:
  serializedVersion: 3
  m_ObjectHideFlags: 0
  m_CorrespondingSourceObject: {fileID: 0}
  m_PrefabInstance: {fileID: 0}
  m_PrefabAsset: {fileID: 0}
  m_GameObject: {fileID: 1765374688411792}
  m_Enabled: 1
  m_Avatar: {fileID: 9000000, guid: 7163db7426b13a345b09fa28a500a5e6, type: 3}
  m_Controller: {fileID: 0}
  m_CullingMode: 0
  m_UpdateMode: 0
  m_ApplyRootMotion: 0
  m_LinearVelocityBlending: 0
  m_WarningMessage: 
  m_HasTransformHierarchy: 1
  m_AllowConstantClipSamplingOptimization: 1
  m_KeepAnimatorControllerStateOnDisable: 0
--- !u!114 &2022694205742350981
MonoBehaviour:
  m_ObjectHideFlags: 0
  m_CorrespondingSourceObject: {fileID: 0}
  m_PrefabInstance: {fileID: 0}
  m_PrefabAsset: {fileID: 0}
  m_GameObject: {fileID: 1765374688411792}
  m_Enabled: 0
  m_EditorHideFlags: 0
  m_Script: {fileID: 11500000, guid: fbf3575480402db40813e763382412fb, type: 3}
  m_Name: 
  m_EditorClassIdentifier: 
  color: 0
  eraseRenderer: 0
  originalLayer: 0
  originalMaterials: []
